^D:\WSYP\DATA_BASE\DATA_BASE\DEBUG\BICYCLE.OBJ|D:\WSYP\DATA_BASE\DATA_BASE\DEBUG\BIKE.OBJ|D:\WSYP\DATA_BASE\DATA_BASE\DEBUG\CAR.OBJ|D:\WSYP\DATA_BASE\DATA_BASE\DEBUG\CONTAINER.OBJ|D:\WSYP\DATA_BASE\DATA_BASE\DEBUG\LIST.OBJ|D:\WSYP\DATA_BASE\DATA_BASE\DEBUG\MAIN.OBJ|D:\WSYP\DATA_BASE\DATA_BASE\DEBUG\SCOOTER.OBJ|D:\WSYP\DATA_BASE\DATA_BASE\DEBUG\SPORTCAR.OBJ|D:\WSYP\DATA_BASE\DATA_BASE\DEBUG\TEST.OBJ
C:\PROGRAM FILES (X86)\WINDOWS KITS\8.1\LIB\WINV6.3\UM\X86\KERNEL32.LIB
C:\PROGRAM FILES (X86)\WINDOWS KITS\8.1\LIB\WINV6.3\UM\X86\USER32.LIB
C:\PROGRAM FILES (X86)\WINDOWS KITS\8.1\LIB\WINV6.3\UM\X86\GDI32.LIB
C:\PROGRAM FILES (X86)\WINDOWS KITS\8.1\LIB\WINV6.3\UM\X86\WINSPOOL.LIB
C:\PROGRAM FILES (X86)\WINDOWS KITS\8.1\LIB\WINV6.3\UM\X86\COMDLG32.LIB
C:\PROGRAM FILES (X86)\WINDOWS KITS\8.1\LIB\WINV6.3\UM\X86\ADVAPI32.LIB
C:\PROGRAM FILES (X86)\WINDOWS KITS\8.1\LIB\WINV6.3\UM\X86\SHELL32.LIB
C:\PROGRAM FILES (X86)\WINDOWS KITS\8.1\LIB\WINV6.3\UM\X86\OLE32.LIB
C:\PROGRAM FILES (X86)\WINDOWS KITS\8.1\LIB\WINV6.3\UM\X86\OLEAUT32.LIB
C:\PROGRAM FILES (X86)\WINDOWS KITS\8.1\LIB\WINV6.3\UM\X86\UUID.LIB
C:\PROGRAM FILES (X86)\WINDOWS KITS\8.1\LIB\WINV6.3\UM\X86\ODBC32.LIB
C:\PROGRAM FILES (X86)\WINDOWS KITS\8.1\LIB\WINV6.3\UM\X86\ODBCCP32.LIB
D:\WSYP\DATA_BASE\DATA_BASE\DEBUG\CONTAINER.OBJ
D:\WSYP\DATA_BASE\DATA_BASE\DEBUG\BICYCLE.OBJ
D:\WSYP\DATA_BASE\DATA_BASE\DEBUG\BIKE.OBJ
D:\WSYP\DATA_BASE\DATA_BASE\DEBUG\CAR.OBJ
D:\WSYP\DATA_BASE\DATA_BASE\DEBUG\LIST.OBJ
D:\WSYP\DATA_BASE\DATA_BASE\DEBUG\MAIN.OBJ
D:\WSYP\DATA_BASE\DATA_BASE\DEBUG\SCOOTER.OBJ
D:\WSYP\DATA_BASE\DATA_BASE\DEBUG\SPORTCAR.OBJ
D:\WSYP\DATA_BASE\DATA_BASE\DEBUG\TEST.OBJ
C:\WINDOWS\SYSTEM32\TZRES.DLL
C:\WINDOWS\GLOBALIZATION\SORTING\SORTDEFAULT.NLS
C:\PROGRAM FILES (X86)\MICROSOFT VISUAL STUDIO 12.0\VC\LIB\MSVCRTD.LIB
C:\PROGRAM FILES (X86)\MICROSOFT VISUAL STUDIO 12.0\VC\LIB\OLDNAMES.LIB
C:\PROGRAM FILES (X86)\WINDOWS KITS\8.1\BIN\X86\RC.EXE
C:\PROGRAM FILES (X86)\MICROSOFT VISUAL STUDIO 12.0\VC\BIN\CVTRES.EXE
